{
  "project": {
    "version": "1.0.0-beta.17",
    "name": "eldorado"
  },
  "apps": [
    {
      "root": "src",
      "outDir": "../web/frontend",
      "assets": ["assets"],
      "index": "index.html",
      "main": "main.ts",
      "test": "test.ts",
      "tsconfig": "tsconfig.json",
      "prefix": "app",
      "mobile": false,
      "styles": [
        "./css/global.scss"
      ],
      "scripts": [
        "../node_modules/moment/moment",
        "../node_modules/jquery/dist/jquery.js",
        "../node_modules/tether/dist/js/tether.js",
        "../node_modules/bootstrap/dist/js/bootstrap.js"
      ],
      "environments": {
        "source": "environments/environment.ts",
        "dev": "environments/environment.ts",
        "prod": "environments/environment.prod.ts",
        "stage": "environments/environment.stage.ts"

      }
    }
  ],
  "addons": [],
  "packages": [],
  "e2e": {
    "protractor": {
      "config": "./protractor.conf.js"
    }
  },
  "test": {
    "karma": {
      "config": "./karma.conf.js"
    }
  },
  "defaults": {
    "styleExt": "scss",
    "prefixInterfaces": false
  }
}
